{
	"info": {
		"_postman_id": "0b619387-2c3f-4bc1-9a5a-283807ac5304",
		"name": "Events",
		"schema": "https://schema.getpostman.com/json/collection/v2.1.0/collection.json",
		"_exporter_id": "20121188"
	},
	"item": [
		{
			"name": "Delete_Event",
			"request": {
				"method": "DELETE",
				"header": [
					{
						"key": "",
						"value": "",
						"type": "text",
						"disabled": true
					}
				],
				"url": {
					"raw": "{{Baseurl}}/events/{id}",
					"host": [
						"{{Baseurl}}"
					],
					"path": [
						"events",
						"{id}"
					]
				}
			},
			"response": [
				{
					"name": "Delete_Event_Success",
					"originalRequest": {
						"method": "DELETE",
						"header": [
							{
								"key": "Authorization",
								"value": "Bearer {{accessToken}}\n",
								"type": "text"
							}
						],
						"url": {
							"raw": "{{Baseurl}}/{{version}}/events/{id}",
							"host": [
								"{{Baseurl}}"
							],
							"path": [
								"{{version}}",
								"events",
								"{id}"
							]
						}
					},
					"status": "OK",
					"code": 200,
					"_postman_previewlanguage": "json",
					"header": [
						{
							"key": "Content-Type",
							"value": "application/json",
							"name": "Content-Type",
							"description": "",
							"type": "text"
						}
					],
					"cookie": [],
					"body": "{\n    \"code\": \"#internal status code\",\n    \"message\": \"Event with ID {id} has been successfully deleted.\"\n}"
				},
				{
					"name": "Delete_Event_Failure",
					"originalRequest": {
						"method": "DELETE",
						"header": [
							{
								"key": "Authorization",
								"value": "Bearer {{accessToken}}",
								"type": "text"
							}
						],
						"url": {
							"raw": "{{Baseurl}}/{{version}}/events/{id}",
							"host": [
								"{{Baseurl}}"
							],
							"path": [
								"{{version}}",
								"events",
								"{id}"
							]
						}
					},
					"status": "Not Found",
					"code": 404,
					"_postman_previewlanguage": "json",
					"header": [
						{
							"key": "Content-Type",
							"value": "application/json",
							"name": "Content-Type",
							"description": "",
							"type": "text"
						}
					],
					"cookie": [],
					"body": "{\n    \"code\" : \"#internal status code\",\n    \"message\" : \"Failed to delete the event\",\n    \"error\": \"Event with ID {id} not found.\"\n}"
				}
			]
		},
		{
			"name": "Create_Event",
			"request": {
				"auth": {
					"type": "bearer"
				},
				"method": "POST",
				"header": [],
				"body": {
					"mode": "raw",
					"raw": "{\n   \"title\":\"Park Clean-up\",\n   \"short_description\":\"Help sort and distribute food to those in need.\",\n   \"long_description\":\"Long description\",\n   \"location\":\"123 Main Street, Anytown, USA\",\n   \"category\":\"Arts\",\n   \"start_date\":\"22-01-2023\",\n   \"end_date\":\"03-02-2023\",\n   \"start_time\":\"09:00\",\n   \"end_time\":\"17:30\",\n   \"tags\":[\n      \"green spaces\",\n      \"public spaces\",\n      \"recycling\",\n      \"litter cleanup\",\n      \"team building\"\n   ],\n   \"volunteers_required\":50,\n   \"image\":\"https://example.com/images/tech-conference.jpg\",\n   \"event_custom_field\":{\n      \"cheif_guest\":\"boby_chammanur\",\n      \"food_category\":\"veg/non-veg\",\n      \"accomodation\":\"o by tamara\",\n      \"website_link\":\"www.googlemaps.com\",\n      \"rules and regulations\":[\n         \"all should wear black dress\",\n         \"age above 25\"\n      ]\n   },\n   \"event_withdrawal_datetime\":\"2023-02-15T15:30:00\"\n}",
					"options": {
						"raw": {
							"language": "json"
						}
					}
				},
				"url": {
					"raw": "{{Baseurl}}/{{version}}/events",
					"host": [
						"{{Baseurl}}"
					],
					"path": [
						"{{version}}",
						"events"
					]
				}
			},
			"response": [
				{
					"name": "Create_Event_Success",
					"originalRequest": {
						"method": "POST",
						"header": [
							{
								"key": "Authorization",
								"value": "Bearer {{accessToken}}",
								"type": "text"
							}
						],
						"body": {
							"mode": "raw",
							"raw": "",
							"options": {
								"raw": {
									"language": "json"
								}
							}
						},
						"url": {
							"raw": "{{Baseurl}}/{{version}}/events",
							"host": [
								"{{Baseurl}}"
							],
							"path": [
								"{{version}}",
								"events"
							]
						}
					},
					"status": "Created",
					"code": 201,
					"_postman_previewlanguage": "json",
					"header": [
						{
							"key": "Content-Type",
							"value": "application/json",
							"name": "Content-Type",
							"description": "",
							"type": "text"
						}
					],
					"cookie": [],
					"body": "{\n    \"code\" : \"#internal status code\",\n    \"message\" : \"Event has been successfully created.\"\n}"
				},
				{
					"name": "Create_Event_Failure",
					"originalRequest": {
						"method": "POST",
						"header": [
							{
								"key": "Authorization",
								"value": "Bearer {{accessToken}}",
								"type": "text"
							}
						],
						"body": {
							"mode": "raw",
							"raw": "",
							"options": {
								"raw": {
									"language": "json"
								}
							}
						},
						"url": {
							"raw": "{{Baseurl}}/{{version}}/events",
							"host": [
								"{{Baseurl}}"
							],
							"path": [
								"{{version}}",
								"events"
							]
						}
					},
					"status": "Bad Request",
					"code": 400,
					"_postman_previewlanguage": "json",
					"header": [
						{
							"key": "Content-Type",
							"value": "application/json",
							"name": "Content-Type",
							"description": "",
							"type": "text"
						}
					],
					"cookie": [],
					"body": "{\n    \"code\" : \"#internal status code\",\n    \"message\" : \"Failed to create the event\",\n    \"error\": \"Invalid request body.\"\n}"
				}
			]
		},
		{
			"name": "List_Events",
			"request": {
				"method": "GET",
				"header": [],
				"url": {
					"raw": "{{Baseurl}}/{{version}}/events?page=1&limit=10&sort_by=newest_first",
					"host": [
						"{{Baseurl}}"
					],
					"path": [
						"{{version}}",
						"events"
					],
					"query": [
						{
							"key": "page",
							"value": "1",
							"description": "Page Number, Default 1 , Possible 1 to N."
						},
						{
							"key": "limit",
							"value": "10",
							"description": "Number of records in a page, Default 10."
						},
						{
							"key": "sort_by",
							"value": "newest_first",
							"description": "Newest first , possible values\n1) Newest first\n2) Oldest First\n3) Alphabetic order (A to Z)\n4) Alphabetic order (Z to A)\n5) Number of members required (highest first)\n6) Number of members required (Lowest first)\n"
						},
						{
							"key": "category",
							"value": "Educational",
							"description": "Category for an event, Possible values\nSocial,Arts,Sports,Educational,Health and Wellness",
							"disabled": true
						},
						{
							"key": "keyword",
							"value": "",
							"description": "Search by a keyword , we can search \n1) Category wise.\n2) Name of the event\n3) Location\n4) Tags\n",
							"disabled": true
						},
						{
							"key": "min_rating",
							"value": "",
							"description": "1 to 5",
							"disabled": true
						},
						{
							"key": "date",
							"value": "",
							"description": "Datepicker",
							"disabled": true
						}
					]
				}
			},
			"response": [
				{
					"name": "List_Events_Success",
					"originalRequest": {
						"method": "GET",
						"header": [
							{
								"key": "Authorization",
								"value": "Bearer {{accessToken}}\n\n",
								"type": "text"
							}
						],
						"url": {
							"raw": "{{Baseurl}}/{{version}}/events",
							"host": [
								"{{Baseurl}}"
							],
							"path": [
								"{{version}}",
								"events"
							]
						}
					},
					"status": "OK",
					"code": 200,
					"_postman_previewlanguage": "json",
					"header": [
						{
							"key": "Content-Type",
							"value": "application/json",
							"name": "Content-Type",
							"description": "",
							"type": "text"
						}
					],
					"cookie": [],
					"body": "{\n    \"code\": \"#internal status code\",\n    \"message\": \"Event List\",\n     \"data\": [\n        {\n            \"uuid\": \"123e4567-e89b-12d3-a456-426655440000\",\n            \"title\": \"Community Cleanup Day\",\n            \"short_description\":  \"Clean\",\n\t        \"long_description\" : \"Long description\",\n            \"location\": \"manzil street 3 TVM\",\n            \"start_date\": \"2023-03-01\",\n            \"end_date\": \"2023-03-01\",\n\t        \"start_time\" :\"09:00\",\n\t        \"end_time\" : \"17:30\",\n            \"volunteers_required\": 10,\n            \"volunteers_registered\": 5,\n\t        \"like_count\" : 10,\n\t        \"category\" : \"social\",\n\t        \"average_rating\" : 5,\n\t        \"image\": \"https://example.com/images/tech-conference.jpg\",\n            \"created_at\": \"2023-02-15T15:30:00\",\n            \"updated_at\": \"2023-02-16T10:00:00\",\n\t        \"event_posted_by\": \"123e4567-e89b-12d3-a456-426655440000\",\n\t        \"event_custom_field\":\"\",\n\t        \"event_withdrawal_datetime\":\"2023-02-15T15:30:00\"\n\n        },\n         {\n            \"uuid\": \"123e4567-e89b-12d3-a456-426655440000\",\n            \"title\": \"Volunteer at the Local Food Bank\",\n            \"short_description\": \"Help sort and distribute food to those in need.\",\n\t        \"long_description\" : \"Long description\",\n            \"location\": \"123 Main Street, Anytown, USA\",\n            \"start_date\": \"2023-03-01\",\n            \"end_date\": \"2023-03-01\",\n\t        \"start_time\" :\"09:00\",\n\t        \"end_time\" : \"17:30\",\n            \"volunteers_required\": 10,\n            \"volunteers_registered\": 5,\n\t        \"like_count\" : 10,\n\t        \"category\" : \"social\",\t\n\t        \"average_rating\" : 5,\n\t        \"image\": \"https://example.com/images/tech-conference.jpg\",\n            \"created_at\": \"2023-02-15T15:30:00\",\n            \"updated_at\": \"2023-02-16T10:00:00\",\n\t        \"event_posted_by\": \"123e4567-e89b-12d3-a456-426655440000\",\n\t        \"event_custom_field\":\"\",\n\t        \"event_withdrawal_datetime\":\"2023-02-15T15:30:00\"\n        }\n    ],\n    \"meta\": {\n       \"current_page\": 2,\n       \"page_size\": 2,\n       \"total_records\": 12,\n       \"total_pages\": 6,\n       \"links\": {\n       \t\"previous\": \"/events?page=1\",\n       \t\"next\": \"/events?page=3\",\n        \t\"first\": \"/events?page=1\",\n        \t\"last\": \"/events?page=6\"\n         }\n    }\n}\n"
				},
				{
					"name": "List_Events_Failure",
					"originalRequest": {
						"method": "GET",
						"header": [
							{
								"key": "Authorization",
								"value": "Bearer {{accessToken}}",
								"type": "text"
							}
						],
						"url": {
							"raw": "{{Baseurl}}/{{version}}/events",
							"host": [
								"{{Baseurl}}"
							],
							"path": [
								"{{version}}",
								"events"
							],
							"query": [
								{
									"key": "",
									"value": null,
									"disabled": true
								}
							]
						}
					},
					"status": "Internal Server Error",
					"code": 500,
					"_postman_previewlanguage": "json",
					"header": [
						{
							"key": "Content-Type",
							"value": "application/json",
							"name": "Content-Type",
							"description": "",
							"type": "text"
						}
					],
					"cookie": [],
					"body": "{\n    \"code\" : \"#internal status code\",\n    \"message\" : \"Failed to list events\",\n    \"error\": \"Internal Server Error\"\n}"
				}
			]
		},
		{
			"name": "List_Specific_Event",
			"request": {
				"method": "GET",
				"header": [],
				"url": {
					"raw": "{{Baseurl}}/{{version}}/events/{id}",
					"host": [
						"{{Baseurl}}"
					],
					"path": [
						"{{version}}",
						"events",
						"{id}"
					]
				}
			},
			"response": [
				{
					"name": "List_Specific_Event_Success",
					"originalRequest": {
						"method": "GET",
						"header": [
							{
								"key": "Authorization",
								"value": "Bearer {{accessToken}}",
								"type": "text"
							}
						],
						"url": {
							"raw": "{{Baseurl}}/{{version}}/events/{id}",
							"host": [
								"{{Baseurl}}"
							],
							"path": [
								"{{version}}",
								"events",
								"{id}"
							]
						}
					},
					"status": "OK",
					"code": 200,
					"_postman_previewlanguage": "json",
					"header": [
						{
							"key": "Content-Type",
							"value": "application/json",
							"name": "Content-Type",
							"description": "",
							"type": "text"
						}
					],
					"cookie": [],
					"body": "{\n   \"code\": \"#internal status code\",\n   \"message\" : \"Event details retrieved successfully\",\n    \"data\": \n        {\n            \"uuid\": \"123e4567-e89b-12d3-a456-426655440000\",\n            \"title\": \"Volunteer at the Local Food Bank\",\n            \"short_description\": \"Help sort and distribute food to those in need.\",\n\t        \"long_description\" : \"Long description\",\n            \"location\": \"123 Main Street, Anytown, USA\",\n            \"start_date\": \"2023-03-01\",\n            \"end_date\": \"2023-03-01\",\n\t        \"start_time\" :\"09:00\",\n\t        \"end_time\" : \"17:30\",\n            \"volunteers_required\": 10,\n            \"volunteers_registered\": 5,\n\t        \"like_count\" : 10,\n\t        \"category\" : \"social\",\n\t        \"average_rating\" : 5,\n\t        \"tags\" : [\"Food distribution\", \"Food access\" , \"Hunger relief\" , \"Food pantry\"],\n        \t\"event_custom_field\":\"\",\n\t        \"image\": \"https://example.com/images/tech-conference.jpg\",\n            \"event_posted_by\": \"123e4567-e89b-12d3-a456-426655440000\",\n            \"created_at\": \"2023-02-15T15:30:00\",\n            \"updated_at\": \"2023-02-16T10:00:00\",\n\t        \"event_withdrawal_datetime\":\"2023-02-15T15:30:00\"\n        }\n\n}\n"
				},
				{
					"name": "List_Specific_Event_Failure",
					"originalRequest": {
						"method": "GET",
						"header": [
							{
								"key": "Authorization",
								"value": "Bearer {{accessToken}}",
								"type": "text"
							}
						],
						"url": {
							"raw": "{{Baseurl}}/{{version}}/events/{id}",
							"host": [
								"{{Baseurl}}"
							],
							"path": [
								"{{version}}",
								"events",
								"{id}"
							]
						}
					},
					"status": "Not Found",
					"code": 404,
					"_postman_previewlanguage": "json",
					"header": [
						{
							"key": "Content-Type",
							"value": "application/json",
							"name": "Content-Type",
							"description": "",
							"type": "text"
						}
					],
					"cookie": [],
					"body": "{\n    \"code\" : \"#internal status code\",\n    \"message\" : \"Failed to retrieve data\",\n    \"error\": \"Event id not found\"\n}"
				}
			]
		},
		{
			"name": "Update_Event",
			"request": {
				"auth": {
					"type": "bearer"
				},
				"method": "PATCH",
				"header": [],
				"body": {
					"mode": "raw",
					"raw": "{\n   \"address\": \"123 Main St.\",\n   \"description\": \"Join us in cleaning up our community!\",\n   \"volunteers_needed\": 50,\n   \"start_date\": \"2023-03-01\",\n   \"end_date\": \"2023-03-01\",\n   \"start_time\" :\"09:00\",\n   \"end_time\" : \"17:30\",\n   \"tags\" : [\"Food distribution\",\"Food access\",\"Hunger relief\",\"Food pantry\"],\n   \"event_withdrawal_datetime\":\"2023-02-15T15:30:00\"\n\n}\n",
					"options": {
						"raw": {
							"language": "json"
						}
					}
				},
				"url": {
					"raw": "{{Baseurl}}/events/{id}",
					"host": [
						"{{Baseurl}}"
					],
					"path": [
						"events",
						"{id}"
					]
				}
			},
			"response": [
				{
					"name": "Update_Event_Success",
					"originalRequest": {
						"method": "GET",
						"header": [
							{
								"key": "Authorization",
								"value": "Bearer {{accessToken}}",
								"type": "text"
							}
						],
						"url": {
							"raw": "{{Baseurl}}/{{version}}/events/{id}",
							"host": [
								"{{Baseurl}}"
							],
							"path": [
								"{{version}}",
								"events",
								"{id}"
							]
						}
					},
					"status": "OK",
					"code": 200,
					"_postman_previewlanguage": "json",
					"header": [
						{
							"key": "Content-Type",
							"value": "application/json",
							"name": "Content-Type",
							"description": "",
							"type": "text"
						}
					],
					"cookie": [],
					"body": "{\n   \"code\": \"#internal status code\",\n   \"message\" : \"Event updated successfully\",\n   \"data\": \n        {   \n            \"address\": \"123 Main St.\",\n            \"description\": \"Join us in cleaning up our community!\",\n            \"volunteers_needed\": 50,\n            \"start_date\": \"2023-03-01\",\n            \"end_date\": \"2023-03-01\",\n\t        \"start_time\" :\"09:00\",\n\t        \"end_time\" : \"17:30\",\n            \"tags\" :[\"Food distribution\", \"Food access\" , \"Hunger relief\" , \"Food pantry\"],\n            \"event_withdrawal_datetime\":\"2023-02-15T15:30:00\"\n        }\n\n}"
				},
				{
					"name": "Update_Event_Failure",
					"originalRequest": {
						"method": "GET",
						"header": [
							{
								"key": "Authorization",
								"value": "Bearer {{accessToken}}",
								"type": "text"
							}
						],
						"url": {
							"raw": "{{Baseurl}}/{{version}}/events/{id}",
							"host": [
								"{{Baseurl}}"
							],
							"path": [
								"{{version}}",
								"events",
								"{id}"
							]
						}
					},
					"status": "Bad Request",
					"code": 400,
					"_postman_previewlanguage": "json",
					"header": [
						{
							"key": "Content-Type",
							"value": "application/json",
							"name": "Content-Type",
							"description": "",
							"type": "text"
						}
					],
					"cookie": [],
					"body": "{\n    \"code\" : \"#internal status code\",\n    \"message\" : \"Failed to update the event\",\n    \"error\": \"Invalid request body.\"\n}"
				}
			]
		},
		{
			"name": "Rate_Event",
			"request": {
				"method": "POST",
				"header": [],
				"body": {
					"mode": "raw",
					"raw": "{\n    \"rating\":4,\n    \"comment\": \"This was a great event! I really enjoyed the speaker and learned a lot.\"\n\n}",
					"options": {
						"raw": {
							"language": "json"
						}
					}
				},
				"url": {
					"raw": "{{Baseurl}}/{{version}}/events/{id}/rate",
					"host": [
						"{{Baseurl}}"
					],
					"path": [
						"{{version}}",
						"events",
						"{id}",
						"rate"
					]
				}
			},
			"response": [
				{
					"name": "Rate_Event_Success",
					"originalRequest": {
						"method": "POST",
						"header": [
							{
								"key": "Authorization",
								"value": "Bearer {{accessToken}}",
								"type": "text"
							}
						],
						"url": {
							"raw": "{{Baseurl}}/{{version}}/events/{id}/rate",
							"host": [
								"{{Baseurl}}"
							],
							"path": [
								"{{version}}",
								"events",
								"{id}",
								"rate"
							]
						}
					},
					"status": "OK",
					"code": 200,
					"_postman_previewlanguage": "json",
					"header": [
						{
							"key": "Content-Type",
							"value": "application/json",
							"name": "Content-Type",
							"description": "",
							"type": "text"
						}
					],
					"cookie": [],
					"body": "{\n    \"code\" : \"#internal status code\",\n    \"message\" : \"Event Successfully rated/commented\"\n}"
				},
				{
					"name": "Rate_Event_Failure",
					"originalRequest": {
						"method": "POST",
						"header": [
							{
								"key": "Authorization",
								"value": "Bearer {{accessToken}}",
								"type": "text"
							}
						],
						"url": {
							"raw": "{{Baseurl}}/{{version}}/events/{id}/rate",
							"host": [
								"{{Baseurl}}"
							],
							"path": [
								"{{version}}",
								"events",
								"{id}",
								"rate"
							]
						}
					},
					"status": "Bad Request",
					"code": 400,
					"_postman_previewlanguage": "json",
					"header": [
						{
							"key": "Content-Type",
							"value": "application/json",
							"name": "Content-Type",
							"description": "",
							"type": "text"
						}
					],
					"cookie": [],
					"body": "{\n    \"code\": \"#internal status code\",\n    \"message\": \"Failed to rate/comment the event\",\n    \"error\": \"Invalid request body\"\n}"
				}
			]
		},
		{
			"name": "Apply_Event",
			"request": {
				"method": "POST",
				"header": [],
				"body": {
					"mode": "raw",
					"raw": "",
					"options": {
						"raw": {
							"language": "json"
						}
					}
				},
				"url": {
					"raw": "{{Baseurl}}/{{version}}/events/{event_id}/register",
					"host": [
						"{{Baseurl}}"
					],
					"path": [
						"{{version}}",
						"events",
						"{event_id}",
						"register"
					]
				}
			},
			"response": [
				{
					"name": "Apply_Event_Success",
					"originalRequest": {
						"method": "GET",
						"header": [
							{
								"key": "Authorization",
								"value": "Bearer {{accessToken}}",
								"type": "text"
							}
						],
						"url": {
							"raw": "{{Baseurl}}/{{version}}/events/{event_id}/register",
							"host": [
								"{{Baseurl}}"
							],
							"path": [
								"{{version}}",
								"events",
								"{event_id}",
								"register"
							]
						}
					},
					"status": "OK",
					"code": 200,
					"_postman_previewlanguage": "json",
					"header": [
						{
							"key": "Content-Type",
							"value": "application/json",
							"name": "Content-Type",
							"description": "",
							"type": "text"
						}
					],
					"cookie": [],
					"body": "{\n    \"code\": \"#internal status code\",\n    \"message\": \"volunteer  registered to an event successfully\"\n}"
				},
				{
					"name": "Apply_Event_Failure",
					"originalRequest": {
						"method": "GET",
						"header": [
							{
								"key": "Authorization",
								"value": "Bearer {{accessToken}}",
								"type": "text"
							}
						],
						"url": {
							"raw": "{{Baseurl}}/{{version}}/events/{event_id}/register",
							"host": [
								"{{Baseurl}}"
							],
							"path": [
								"{{version}}",
								"events",
								"{event_id}",
								"register"
							],
							"query": [
								{
									"key": "",
									"value": null,
									"disabled": true
								}
							]
						}
					},
					"status": "Not Found",
					"code": 404,
					"_postman_previewlanguage": "json",
					"header": [
						{
							"key": "Content-Type",
							"value": "application/json",
							"name": "Content-Type",
							"description": "",
							"type": "text"
						}
					],
					"cookie": [],
					"body": "{\n    \"code\": \"#internal status code\",\n    \"message\": \"Failed to apply for an event\",\n    \"error\":\"Event id not found\"\n}"
				}
			]
		},
		{
			"name": "Registered_Volunteer_List",
			"request": {
				"method": "GET",
				"header": [],
				"url": {
					"raw": "{{Baseurl}}/{{version}}/events/{id}/volunteers?page=1&limit=10",
					"host": [
						"{{Baseurl}}"
					],
					"path": [
						"{{version}}",
						"events",
						"{id}",
						"volunteers"
					],
					"query": [
						{
							"key": "page",
							"value": "1",
							"description": "Page Number, Default 1 , Possible 1 to N."
						},
						{
							"key": "limit",
							"value": "10",
							"description": "Number of records in a page, Default 10."
						}
					]
				}
			},
			"response": [
				{
					"name": "Registered_Volunteer_List_Success",
					"originalRequest": {
						"method": "GET",
						"header": [
							{
								"key": "Authorization",
								"value": "Bearer {{accessToken}}",
								"type": "text"
							}
						],
						"url": {
							"raw": "{{Baseurl}}/{{version}}/events/{id}/volunteers",
							"host": [
								"{{Baseurl}}"
							],
							"path": [
								"{{version}}",
								"events",
								"{id}",
								"volunteers"
							]
						}
					},
					"status": "OK",
					"code": 200,
					"_postman_previewlanguage": "json",
					"header": [
						{
							"key": "Content-Type",
							"value": "application/json",
							"name": "Content-Type",
							"description": "",
							"type": "text"
						}
					],
					"cookie": [],
					"body": "{\n   \"code\":\"#internal status code\",\n   \"message\":\"List of Volunteers registered for the Event\",\n   \"data\":[\n      {\n         \"event_id\":\"123e4567-e89b-12d3-a456-426655440000\",\n         \"volunteers\":[\n            {\n               \"uuid\":\"123e4567-e89b-12d3-a456-426655440001\"\n            },\n            {\n               \"uuid\":\"123e4567-e89b-12d3-a456-426655440002\"\n            }\n         ]\n      }\n   ],\n   \"meta\": {\n       \"current_page\": 2,\n       \"page_size\": 2,\n       \"total_records\": 12,\n       \"total_pages\": 6,\n       \"links\": {\n         }\n    }\n}"
				},
				{
					"name": "Registered_Volunteer_List_Failure",
					"originalRequest": {
						"method": "GET",
						"header": [
							{
								"key": "Authorization",
								"value": "Bearer {{accessToken}}",
								"type": "text"
							}
						],
						"url": {
							"raw": "{{Baseurl}}/{{version}}/events/{id}/volunteers",
							"host": [
								"{{Baseurl}}"
							],
							"path": [
								"{{version}}",
								"events",
								"{id}",
								"volunteers"
							]
						}
					},
					"status": "Internal Server Error",
					"code": 500,
					"_postman_previewlanguage": "json",
					"header": [
						{
							"key": "Content-Type",
							"value": "application/json",
							"name": "Content-Type",
							"description": "",
							"type": "text"
						}
					],
					"cookie": [],
					"body": "{\n    \"code\" : \"#internal status code\",\n    \"message\" : \"Failed to list events\",\n    \"error\": \"Internal Server Error\"\n}"
				}
			]
		},
		{
			"name": "Remove_Registered_Volunteer",
			"request": {
				"method": "DELETE",
				"header": [],
				"url": {
					"raw": "{{Baseurl}}/{{version}}/events/{id}/volunteers/{volunteer_id}",
					"host": [
						"{{Baseurl}}"
					],
					"path": [
						"{{version}}",
						"events",
						"{id}",
						"volunteers",
						"{volunteer_id}"
					]
				}
			},
			"response": [
				{
					"name": "Remove_Volunteer_Success",
					"originalRequest": {
						"method": "GET",
						"header": [
							{
								"key": "Authorization",
								"value": "Bearer {{accessToken}}",
								"type": "text"
							}
						],
						"url": {
							"raw": "{{Baseurl}}/{{version}}/events/{id}/volunteers/{volunteer_id}",
							"host": [
								"{{Baseurl}}"
							],
							"path": [
								"{{version}}",
								"events",
								"{id}",
								"volunteers",
								"{volunteer_id}"
							]
						}
					},
					"status": "OK",
					"code": 200,
					"_postman_previewlanguage": "json",
					"header": [
						{
							"key": "Content-Type",
							"value": "application/json",
							"name": "Content-Type",
							"description": "",
							"type": "text"
						}
					],
					"cookie": [],
					"body": "{\n    \"code\": \"#internal status code\",\n    \"message\": \"Volunteer with ID {volunteer_id} removed from the event.\"\n}"
				},
				{
					"name": "Remove_Volunteer_Failure",
					"originalRequest": {
						"method": "GET",
						"header": [
							{
								"key": "Authorization",
								"value": "Bearer {{accessToken}}",
								"type": "text"
							}
						],
						"url": {
							"raw": "{{Baseurl}}/{{version}}/events/{id}/volunteers/{volunteer_id}",
							"host": [
								"{{Baseurl}}"
							],
							"path": [
								"{{version}}",
								"events",
								"{id}",
								"volunteers",
								"{volunteer_id}"
							]
						}
					},
					"status": "Not Found",
					"code": 404,
					"_postman_previewlanguage": "json",
					"header": [
						{
							"key": "Content-Type",
							"value": "application/json",
							"name": "Content-Type",
							"description": "",
							"type": "text"
						}
					],
					"cookie": [],
					"body": "{\n    \"code\": \"#internal status code\",\n    \"message\": \"Failed to delete the volunteer\",\n    \"error\": \"The specified volunteer or event does not exist.\"\n}"
				}
			]
		},
		{
			"name": " Events_Comments_Lists",
			"request": {
				"method": "GET",
				"header": [],
				"url": {
					"raw": "{{Baseurl}}/{{version}}/events/{event_id}/comments",
					"host": [
						"{{Baseurl}}"
					],
					"path": [
						"{{version}}",
						"events",
						"{event_id}",
						"comments"
					]
				}
			},
			"response": [
				{
					"name": "Events_Comments_Lists_Success",
					"originalRequest": {
						"method": "GET",
						"header": [
							{
								"key": "Authorization",
								"value": "Bearer {{accessToken}}",
								"type": "text"
							}
						],
						"url": {
							"raw": "{{Baseurl}}/{{version}}/events/{event_id}/comments",
							"host": [
								"{{Baseurl}}"
							],
							"path": [
								"{{version}}",
								"events",
								"{event_id}",
								"comments"
							]
						}
					},
					"status": "OK",
					"code": 200,
					"_postman_previewlanguage": "json",
					"header": [
						{
							"key": "Content-Type",
							"value": "application/json",
							"name": "Content-Type",
							"description": "",
							"type": "text"
						}
					],
					"cookie": [],
					"body": "{\n  \"status\": \"success\",\n  \"message\": \"Comments for the event\",\n  \"data\": [\n    {\n      \"uuid\": \"123e4567-e89b-12d3-a456-426655440001\",\n      \"comment\": \"Great event, had a lot of fun!\"\n    },\n    {\n      \"uuid\": \"123e4567-e89b-12d3-a456-426655440001\",\n      \"comment\": \"Thanks for organising this!\"\n    }\n  ],\n    \"meta\": {\n       \"current_page\": 2,\n       \"page_size\": 2,\n       \"total_records\": 12,\n       \"total_pages\": 6,\n       \"links\": {\n         }\n    }\n}\n"
				},
				{
					"name": "Events_Comments_Lists_Failure",
					"originalRequest": {
						"method": "GET",
						"header": [
							{
								"key": "Authorization",
								"value": "Bearer {{accessToken}}",
								"type": "text"
							}
						],
						"url": {
							"raw": "{{Baseurl}}/{{version}}/events/{event_id}/comments",
							"host": [
								"{{Baseurl}}"
							],
							"path": [
								"{{version}}",
								"events",
								"{event_id}",
								"comments"
							]
						}
					},
					"status": "Internal Server Error",
					"code": 500,
					"_postman_previewlanguage": "json",
					"header": [
						{
							"key": "Content-Type",
							"value": "application/json",
							"name": "Content-Type",
							"description": "",
							"type": "text"
						}
					],
					"cookie": [],
					"body": "{\r\n    \"code\" : \"#internal status code\",\r\n    \"message\" : \"Failed to list comments\",\r\n    \"error\": \"Internal Server Error\"\r\n}"
				}
			]
		},
		{
			"name": "Events_Approve_Reject",
			"request": {
				"method": "PATCH",
				"header": [
					{
						"key": "Authorization",
						"value": "Bearer {{accessToken}}",
						"type": "text"
					}
				],
				"body": {
					"mode": "raw",
					"raw": "{\r\n    \"approved\": false,\r\n    \"comment\": \"Event does not align with our community values\"\r\n}",
					"options": {
						"raw": {
							"language": "json"
						}
					}
				},
				"url": {
					"raw": "{{Baseurl}}/{{version}}/events/{event_id}/approval",
					"host": [
						"{{Baseurl}}"
					],
					"path": [
						"{{version}}",
						"events",
						"{event_id}",
						"approval"
					]
				}
			},
			"response": [
				{
					"name": "Events_Approve_Reject_Success",
					"originalRequest": {
						"method": "PUT",
						"header": [
							{
								"key": "Authorization",
								"value": "Bearer {{accessToken}}",
								"type": "text"
							}
						],
						"body": {
							"mode": "raw",
							"raw": "{\r\n    \"approved\": false,\r\n    \"comment\": \"Event does not align with our community values\"\r\n}",
							"options": {
								"raw": {
									"language": "json"
								}
							}
						},
						"url": {
							"raw": "{{Baseurl}}/{{version}}/events/{event_id}/approval",
							"host": [
								"{{Baseurl}}"
							],
							"path": [
								"{{version}}",
								"events",
								"{event_id}",
								"approval"
							]
						}
					},
					"status": "OK",
					"code": 200,
					"_postman_previewlanguage": null,
					"header": null,
					"cookie": [],
					"body": "{\r\n    \"status\": \"success\",\r\n    \"message\": \"Event rejected\",\r\n    \"event_id\": \"123\",\r\n    \"approved\": false,\r\n    \"comment\": \"Event does not align with our community values\"\r\n}"
				},
				{
					"name": "Events_Approve_Reject_Failure",
					"originalRequest": {
						"method": "PUT",
						"header": [
							{
								"key": "Authorization",
								"value": "Bearer {{accessToken}}",
								"type": "text"
							}
						],
						"body": {
							"mode": "raw",
							"raw": "{\r\n    \"approved\": false,\r\n    \"comment\": \"Event does not align with our community values\"\r\n}",
							"options": {
								"raw": {
									"language": "json"
								}
							}
						},
						"url": {
							"raw": "{{Baseurl}}/{{version}}/events/{event_id}/approval",
							"host": [
								"{{Baseurl}}"
							],
							"path": [
								"{{version}}",
								"events",
								"{event_id}",
								"approval"
							]
						}
					},
					"status": "Internal Server Error",
					"code": 500,
					"_postman_previewlanguage": null,
					"header": null,
					"cookie": [],
					"body": "{\r\n    \"code\" : \"#internal status code\",\r\n    \"message\" : \"Failed to approve/reject event\",\r\n    \"error\": \"Internal Server Error\"\r\n}"
				}
			]
		}
	]
}